{
  "_Comment": {
    "SpawnRate": "Spawn rate",
    "IsEnabled": "False \u003d Disabled, true \u003d Enabled",
    "WorldCooldown": "Cooldown if cow milked in world (not in stall, like mechanisms)",
    "StallCooldown": "Cooldown if cow milked from Stall",
    "BreedingChance": "Chance of breeding to succeed",
    "BreedingCooldown": "How many ticks it takes before the cow can breed again",
    "GrowingAge": "How many ticks it takes for the baby cow to grow up",
    "Parent First": "First parent to fluid (empty is disable) example usage: \"lava\" \"water\"",
    "Parent Second": "Second parent to fluid (empty is disable) example usage: \"lava\" \"water\"",
    "Tip#1": "Cow rewards? Yes! Set enable to true, rate to zero, remove parents and make recipe with CraftTweaker!",
    "Tip#2": "Only breeding cow? Yes! Set enable to true, rate to zero and add parents!"
  },
  "_Comment General": {
    "BreedingItemWork": "If true u can use the breeding item to get lower baby growing age",
    "ProjectETickRemove": "If true - \"Watch of Flowing Time\" not work on Cow Stall. From mod \"ProjectE\"",
    "NotEnoughtWandsTickRemove": "If true - \"Acceleration Wand\" not work on Cow Stall. From mod \"Not Enough Wand\"",
    "TorcherinoTickRemove": "If true - all types \"Torcherino\" not work on Cow Stall. From mod \"Torcherino\"",
    "DisableBreedingItemForMachines": "Disables get breeding item via machines\n"
  },
  "General": {
    "BreedingItemWork": false,
    "ProjectETickRemove": false,
    "NotEnoughtWandsTickRemove": false,
    "TorcherinoTickRemove": false,
    "DisableBreedingItemForMachines": false
  },
  "binnie.liqueur.blackcurrant": {
    "SpawnRate": 100,
    "IsEnabled": true,
    "WorldCooldown": 4000,
    "StallCooldown": 4000,
    "BreedingChance": 50,
    "BreedingCooldown": 6000,
    "GrowingAge": -24000,
    "Parent First": "",
    "Parent Second": ""
  },
  "seed.oil": {
    "SpawnRate": 100,
    "IsEnabled": true,
    "WorldCooldown": 4000,
    "StallCooldown": 4000,
    "BreedingChance": 50,
    "BreedingCooldown": 6000,
    "GrowingAge": -24000,
    "Parent First": "",
    "Parent Second": ""
  },
  "binnie.juice.pear": {
    "SpawnRate": 100,
    "IsEnabled": true,
    "WorldCooldown": 4000,
    "StallCooldown": 4000,
    "BreedingChance": 50,
    "BreedingCooldown": 6000,
    "GrowingAge": -24000,
    "Parent First": "",
    "Parent Second": ""
  },
  "concrete": {
    "SpawnRate": 100,
    "IsEnabled": true,
    "WorldCooldown": 4000,
    "StallCooldown": 4000,
    "BreedingChance": 50,
    "BreedingCooldown": 6000,
    "GrowingAge": -24000,
    "Parent First": "",
    "Parent Second": ""
  },
  "binnie.mash.corn": {
    "SpawnRate": 100,
    "IsEnabled": true,
    "WorldCooldown": 4000,
    "StallCooldown": 4000,
    "BreedingChance": 50,
    "BreedingCooldown": 6000,
    "GrowingAge": -24000,
    "Parent First": "",
    "Parent Second": ""
  },
  "binnie.brandy.apple": {
    "SpawnRate": 100,
    "IsEnabled": true,
    "WorldCooldown": 4000,
    "StallCooldown": 4000,
    "BreedingChance": 50,
    "BreedingCooldown": 6000,
    "GrowingAge": -24000,
    "Parent First": "",
    "Parent Second": ""
  },
  "binnie.juice.carrot": {
    "SpawnRate": 100,
    "IsEnabled": true,
    "WorldCooldown": 4000,
    "StallCooldown": 4000,
    "BreedingChance": 50,
    "BreedingCooldown": 6000,
    "GrowingAge": -24000,
    "Parent First": "",
    "Parent Second": ""
  },
  "fire_water": {
    "SpawnRate": 100,
    "IsEnabled": true,
    "WorldCooldown": 4000,
    "StallCooldown": 4000,
    "BreedingChance": 50,
    "BreedingCooldown": 6000,
    "GrowingAge": -24000,
    "Parent First": "",
    "Parent Second": ""
  },
  "binnie.liquor.fruit": {
    "SpawnRate": 100,
    "IsEnabled": true,
    "WorldCooldown": 4000,
    "StallCooldown": 4000,
    "BreedingChance": 50,
    "BreedingCooldown": 6000,
    "GrowingAge": -24000,
    "Parent First": "",
    "Parent Second": ""
  },
  "binnie.juice.plum": {
    "SpawnRate": 100,
    "IsEnabled": true,
    "WorldCooldown": 4000,
    "StallCooldown": 4000,
    "BreedingChance": 50,
    "BreedingCooldown": 6000,
    "GrowingAge": -24000,
    "Parent First": "",
    "Parent Second": ""
  },
  "binnie.brandy.citrus": {
    "SpawnRate": 100,
    "IsEnabled": true,
    "WorldCooldown": 4000,
    "StallCooldown": 4000,
    "BreedingChance": 50,
    "BreedingCooldown": 6000,
    "GrowingAge": -24000,
    "Parent First": "",
    "Parent Second": ""
  },
  "binnie.wine.white": {
    "SpawnRate": 100,
    "IsEnabled": true,
    "WorldCooldown": 4000,
    "StallCooldown": 4000,
    "BreedingChance": 50,
    "BreedingCooldown": 6000,
    "GrowingAge": -24000,
    "Parent First": "",
    "Parent Second": ""
  },
  "binnie.wine.red": {
    "SpawnRate": 100,
    "IsEnabled": true,
    "WorldCooldown": 4000,
    "StallCooldown": 4000,
    "BreedingChance": 50,
    "BreedingCooldown": 6000,
    "GrowingAge": -24000,
    "Parent First": "",
    "Parent Second": ""
  },
  "binnie.juice.banana": {
    "SpawnRate": 100,
    "IsEnabled": true,
    "WorldCooldown": 4000,
    "StallCooldown": 4000,
    "BreedingChance": 50,
    "BreedingCooldown": 6000,
    "GrowingAge": -24000,
    "Parent First": "",
    "Parent Second": ""
  },
  "binnie.juice.apricot": {
    "SpawnRate": 100,
    "IsEnabled": true,
    "WorldCooldown": 4000,
    "StallCooldown": 4000,
    "BreedingChance": 50,
    "BreedingCooldown": 6000,
    "GrowingAge": -24000,
    "Parent First": "",
    "Parent Second": ""
  },
  "binnie.liqueur.chocolate": {
    "SpawnRate": 100,
    "IsEnabled": true,
    "WorldCooldown": 4000,
    "StallCooldown": 4000,
    "BreedingChance": 50,
    "BreedingCooldown": 6000,
    "GrowingAge": -24000,
    "Parent First": "",
    "Parent Second": ""
  },
  "hootch": {
    "SpawnRate": 100,
    "IsEnabled": true,
    "WorldCooldown": 4000,
    "StallCooldown": 4000,
    "BreedingChance": 50,
    "BreedingCooldown": 6000,
    "GrowingAge": -24000,
    "Parent First": "",
    "Parent Second": ""
  },
  "binnie.ciderpear": {
    "SpawnRate": 100,
    "IsEnabled": true,
    "WorldCooldown": 4000,
    "StallCooldown": 4000,
    "BreedingChance": 50,
    "BreedingCooldown": 6000,
    "GrowingAge": -24000,
    "Parent First": "",
    "Parent Second": ""
  },
  "binnie.bacteria": {
    "SpawnRate": 100,
    "IsEnabled": true,
    "WorldCooldown": 4000,
    "StallCooldown": 4000,
    "BreedingChance": 50,
    "BreedingCooldown": 6000,
    "GrowingAge": -24000,
    "Parent First": "",
    "Parent Second": ""
  },
  "purifying_fluid": {
    "SpawnRate": 100,
    "IsEnabled": true,
    "WorldCooldown": 4000,
    "StallCooldown": 4000,
    "BreedingChance": 50,
    "BreedingCooldown": 6000,
    "GrowingAge": -24000,
    "Parent First": "",
    "Parent Second": ""
  },
  "binnie.mash.grain": {
    "SpawnRate": 100,
    "IsEnabled": true,
    "WorldCooldown": 4000,
    "StallCooldown": 4000,
    "BreedingChance": 50,
    "BreedingCooldown": 6000,
    "GrowingAge": -24000,
    "Parent First": "",
    "Parent Second": ""
  },
  "binnie.wine.plum": {
    "SpawnRate": 100,
    "IsEnabled": true,
    "WorldCooldown": 4000,
    "StallCooldown": 4000,
    "BreedingChance": 50,
    "BreedingCooldown": 6000,
    "GrowingAge": -24000,
    "Parent First": "",
    "Parent Second": ""
  },
  "binnie.mash.wheat": {
    "SpawnRate": 100,
    "IsEnabled": true,
    "WorldCooldown": 4000,
    "StallCooldown": 4000,
    "BreedingChance": 50,
    "BreedingCooldown": 6000,
    "GrowingAge": -24000,
    "Parent First": "",
    "Parent Second": ""
  },
  "binnie.liqueur.banana": {
    "SpawnRate": 100,
    "IsEnabled": true,
    "WorldCooldown": 4000,
    "StallCooldown": 4000,
    "BreedingChance": 50,
    "BreedingCooldown": 6000,
    "GrowingAge": -24000,
    "Parent First": "",
    "Parent Second": ""
  },
  "liquiddna": {
    "SpawnRate": 100,
    "IsEnabled": true,
    "WorldCooldown": 4000,
    "StallCooldown": 4000,
    "BreedingChance": 50,
    "BreedingCooldown": 6000,
    "GrowingAge": -24000,
    "Parent First": "",
    "Parent Second": ""
  },
  "binnie.whiskey.corn": {
    "SpawnRate": 100,
    "IsEnabled": true,
    "WorldCooldown": 4000,
    "StallCooldown": 4000,
    "BreedingChance": 50,
    "BreedingCooldown": 6000,
    "GrowingAge": -24000,
    "Parent First": "",
    "Parent Second": ""
  },
  "binnie.juice.peach": {
    "SpawnRate": 100,
    "IsEnabled": true,
    "WorldCooldown": 4000,
    "StallCooldown": 4000,
    "BreedingChance": 50,
    "BreedingCooldown": 6000,
    "GrowingAge": -24000,
    "Parent First": "",
    "Parent Second": ""
  },
  "binnie.whiskey.rye": {
    "SpawnRate": 100,
    "IsEnabled": true,
    "WorldCooldown": 4000,
    "StallCooldown": 4000,
    "BreedingChance": 50,
    "BreedingCooldown": 6000,
    "GrowingAge": -24000,
    "Parent First": "",
    "Parent Second": ""
  },
  "binnie.wine.elderberry": {
    "SpawnRate": 100,
    "IsEnabled": true,
    "WorldCooldown": 4000,
    "StallCooldown": 4000,
    "BreedingChance": 50,
    "BreedingCooldown": 6000,
    "GrowingAge": -24000,
    "Parent First": "",
    "Parent Second": ""
  },
  "protein": {
    "SpawnRate": 100,
    "IsEnabled": true,
    "WorldCooldown": 4000,
    "StallCooldown": 4000,
    "BreedingChance": 50,
    "BreedingCooldown": 6000,
    "GrowingAge": -24000,
    "Parent First": "",
    "Parent Second": ""
  },
  "binnie.liqueur.herbal": {
    "SpawnRate": 100,
    "IsEnabled": true,
    "WorldCooldown": 4000,
    "StallCooldown": 4000,
    "BreedingChance": 50,
    "BreedingCooldown": 6000,
    "GrowingAge": -24000,
    "Parent First": "",
    "Parent Second": ""
  },
  "binnie.brandy.elderberry": {
    "SpawnRate": 100,
    "IsEnabled": true,
    "WorldCooldown": 4000,
    "StallCooldown": 4000,
    "BreedingChance": 50,
    "BreedingCooldown": 6000,
    "GrowingAge": -24000,
    "Parent First": "",
    "Parent Second": ""
  },
  "ender_distillation": {
    "SpawnRate": 100,
    "IsEnabled": true,
    "WorldCooldown": 4000,
    "StallCooldown": 4000,
    "BreedingChance": 50,
    "BreedingCooldown": 6000,
    "GrowingAge": -24000,
    "Parent First": "",
    "Parent Second": ""
  },
  "refinedcanolaoil": {
    "SpawnRate": 100,
    "IsEnabled": true,
    "WorldCooldown": 4000,
    "StallCooldown": 4000,
    "BreedingChance": 50,
    "BreedingCooldown": 6000,
    "GrowingAge": -24000,
    "Parent First": "",
    "Parent Second": ""
  },
  "binnie.wine.pineapple": {
    "SpawnRate": 100,
    "IsEnabled": true,
    "WorldCooldown": 4000,
    "StallCooldown": 4000,
    "BreedingChance": 50,
    "BreedingCooldown": 6000,
    "GrowingAge": -24000,
    "Parent First": "",
    "Parent Second": ""
  },
  "binnie.liqueur.raspberry": {
    "SpawnRate": 100,
    "IsEnabled": true,
    "WorldCooldown": 4000,
    "StallCooldown": 4000,
    "BreedingChance": 50,
    "BreedingCooldown": 6000,
    "GrowingAge": -24000,
    "Parent First": "",
    "Parent Second": ""
  },
  "binnie.juice.apple": {
    "SpawnRate": 100,
    "IsEnabled": true,
    "WorldCooldown": 4000,
    "StallCooldown": 4000,
    "BreedingChance": 50,
    "BreedingCooldown": 6000,
    "GrowingAge": -24000,
    "Parent First": "",
    "Parent Second": ""
  },
  "liquid_death": {
    "SpawnRate": 100,
    "IsEnabled": true,
    "WorldCooldown": 4000,
    "StallCooldown": 4000,
    "BreedingChance": 50,
    "BreedingCooldown": 6000,
    "GrowingAge": -24000,
    "Parent First": "",
    "Parent Second": ""
  },
  "binnie.dna.raw": {
    "SpawnRate": 100,
    "IsEnabled": true,
    "WorldCooldown": 4000,
    "StallCooldown": 4000,
    "BreedingChance": 50,
    "BreedingCooldown": 6000,
    "GrowingAge": -24000,
    "Parent First": "",
    "Parent Second": ""
  },
  "binnie.vodka": {
    "SpawnRate": 100,
    "IsEnabled": true,
    "WorldCooldown": 4000,
    "StallCooldown": 4000,
    "BreedingChance": 50,
    "BreedingCooldown": 6000,
    "GrowingAge": -24000,
    "Parent First": "",
    "Parent Second": ""
  },
  "for.honey": {
    "SpawnRate": 100,
    "IsEnabled": true,
    "WorldCooldown": 4000,
    "StallCooldown": 4000,
    "BreedingChance": 50,
    "BreedingCooldown": 6000,
    "GrowingAge": -24000,
    "Parent First": "",
    "Parent Second": ""
  },
  "binnie.brandy.apricot": {
    "SpawnRate": 100,
    "IsEnabled": true,
    "WorldCooldown": 4000,
    "StallCooldown": 4000,
    "BreedingChance": 50,
    "BreedingCooldown": 6000,
    "GrowingAge": -24000,
    "Parent First": "",
    "Parent Second": ""
  },
  "binnie.liqueur.almond": {
    "SpawnRate": 100,
    "IsEnabled": true,
    "WorldCooldown": 4000,
    "StallCooldown": 4000,
    "BreedingChance": 50,
    "BreedingCooldown": 6000,
    "GrowingAge": -24000,
    "Parent First": "",
    "Parent Second": ""
  },
  "binnie.wine.fortified": {
    "SpawnRate": 100,
    "IsEnabled": true,
    "WorldCooldown": 4000,
    "StallCooldown": 4000,
    "BreedingChance": 50,
    "BreedingCooldown": 6000,
    "GrowingAge": -24000,
    "Parent First": "",
    "Parent Second": ""
  },
  "binnie.liqueur.melon": {
    "SpawnRate": 100,
    "IsEnabled": true,
    "WorldCooldown": 4000,
    "StallCooldown": 4000,
    "BreedingChance": 50,
    "BreedingCooldown": 6000,
    "GrowingAge": -24000,
    "Parent First": "",
    "Parent Second": ""
  },
  "canolaoil": {
    "SpawnRate": 100,
    "IsEnabled": true,
    "WorldCooldown": 4000,
    "StallCooldown": 4000,
    "BreedingChance": 50,
    "BreedingCooldown": 6000,
    "GrowingAge": -24000,
    "Parent First": "",
    "Parent Second": ""
  },
  "binnie.bacteria.vector": {
    "SpawnRate": 100,
    "IsEnabled": true,
    "WorldCooldown": 4000,
    "StallCooldown": 4000,
    "BreedingChance": 50,
    "BreedingCooldown": 6000,
    "GrowingAge": -24000,
    "Parent First": "",
    "Parent Second": ""
  },
  "binnie.liqueur.anise": {
    "SpawnRate": 100,
    "IsEnabled": true,
    "WorldCooldown": 4000,
    "StallCooldown": 4000,
    "BreedingChance": 50,
    "BreedingCooldown": 6000,
    "GrowingAge": -24000,
    "Parent First": "",
    "Parent Second": ""
  },
  "glass": {
    "SpawnRate": 100,
    "IsEnabled": true,
    "WorldCooldown": 4000,
    "StallCooldown": 4000,
    "BreedingChance": 50,
    "BreedingCooldown": 6000,
    "GrowingAge": -24000,
    "Parent First": "",
    "Parent Second": ""
  },
  "binnie.mash.rye": {
    "SpawnRate": 100,
    "IsEnabled": true,
    "WorldCooldown": 4000,
    "StallCooldown": 4000,
    "BreedingChance": 50,
    "BreedingCooldown": 6000,
    "GrowingAge": -24000,
    "Parent First": "",
    "Parent Second": ""
  },
  "binnie.rum.dark": {
    "SpawnRate": 100,
    "IsEnabled": true,
    "WorldCooldown": 4000,
    "StallCooldown": 4000,
    "BreedingChance": 50,
    "BreedingCooldown": 6000,
    "GrowingAge": -24000,
    "Parent First": "",
    "Parent Second": ""
  },
  "ethanol": {
    "SpawnRate": 100,
    "IsEnabled": true,
    "WorldCooldown": 4000,
    "StallCooldown": 4000,
    "BreedingChance": 50,
    "BreedingCooldown": 6000,
    "GrowingAge": -24000,
    "Parent First": "",
    "Parent Second": ""
  },
  "binnie.juice": {
    "SpawnRate": 100,
    "IsEnabled": true,
    "WorldCooldown": 4000,
    "StallCooldown": 4000,
    "BreedingChance": 50,
    "BreedingCooldown": 6000,
    "GrowingAge": -24000,
    "Parent First": "",
    "Parent Second": ""
  },
  "binnie.wine.tomato": {
    "SpawnRate": 100,
    "IsEnabled": true,
    "WorldCooldown": 4000,
    "StallCooldown": 4000,
    "BreedingChance": 50,
    "BreedingCooldown": 6000,
    "GrowingAge": -24000,
    "Parent First": "",
    "Parent Second": ""
  },
  "binnie.cider.peach": {
    "SpawnRate": 100,
    "IsEnabled": true,
    "WorldCooldown": 4000,
    "StallCooldown": 4000,
    "BreedingChance": 50,
    "BreedingCooldown": 6000,
    "GrowingAge": -24000,
    "Parent First": "",
    "Parent Second": ""
  },
  "binnie.wine.cherry": {
    "SpawnRate": 100,
    "IsEnabled": true,
    "WorldCooldown": 4000,
    "StallCooldown": 4000,
    "BreedingChance": 50,
    "BreedingCooldown": 6000,
    "GrowingAge": -24000,
    "Parent First": "",
    "Parent Second": ""
  },
  "binnie.spirit.neutral": {
    "SpawnRate": 100,
    "IsEnabled": true,
    "WorldCooldown": 4000,
    "StallCooldown": 4000,
    "BreedingChance": 50,
    "BreedingCooldown": 6000,
    "GrowingAge": -24000,
    "Parent First": "",
    "Parent Second": ""
  },
  "potion": {
    "SpawnRate": 100,
    "IsEnabled": true,
    "WorldCooldown": 4000,
    "StallCooldown": 4000,
    "BreedingChance": 50,
    "BreedingCooldown": 6000,
    "GrowingAge": -24000,
    "Parent First": "",
    "Parent Second": ""
  },
  "empoweredoil": {
    "SpawnRate": 100,
    "IsEnabled": true,
    "WorldCooldown": 4000,
    "StallCooldown": 4000,
    "BreedingChance": 50,
    "BreedingCooldown": 6000,
    "GrowingAge": -24000,
    "Parent First": "",
    "Parent Second": ""
  },
  "binnie.cider.apple": {
    "SpawnRate": 100,
    "IsEnabled": true,
    "WorldCooldown": 4000,
    "StallCooldown": 4000,
    "BreedingChance": 50,
    "BreedingCooldown": 6000,
    "GrowingAge": -24000,
    "Parent First": "",
    "Parent Second": ""
  },
  "binnie.brandy.pear": {
    "SpawnRate": 100,
    "IsEnabled": true,
    "WorldCooldown": 4000,
    "StallCooldown": 4000,
    "BreedingChance": 50,
    "BreedingCooldown": 6000,
    "GrowingAge": -24000,
    "Parent First": "",
    "Parent Second": ""
  },
  "binnie.liqueur.orange": {
    "SpawnRate": 100,
    "IsEnabled": true,
    "WorldCooldown": 4000,
    "StallCooldown": 4000,
    "BreedingChance": 50,
    "BreedingCooldown": 6000,
    "GrowingAge": -24000,
    "Parent First": "",
    "Parent Second": ""
  },
  "juice": {
    "SpawnRate": 100,
    "IsEnabled": true,
    "WorldCooldown": 4000,
    "StallCooldown": 4000,
    "BreedingChance": 50,
    "BreedingCooldown": 6000,
    "GrowingAge": -24000,
    "Parent First": "",
    "Parent Second": ""
  },
  "binnie.beer.lager": {
    "SpawnRate": 100,
    "IsEnabled": true,
    "WorldCooldown": 4000,
    "StallCooldown": 4000,
    "BreedingChance": 50,
    "BreedingCooldown": 6000,
    "GrowingAge": -24000,
    "Parent First": "",
    "Parent Second": ""
  },
  "binnie.juice.cranberry": {
    "SpawnRate": 100,
    "IsEnabled": true,
    "WorldCooldown": 4000,
    "StallCooldown": 4000,
    "BreedingChance": 50,
    "BreedingCooldown": 6000,
    "GrowingAge": -24000,
    "Parent First": "",
    "Parent Second": ""
  },
  "binnie.spirit.gin": {
    "SpawnRate": 100,
    "IsEnabled": true,
    "WorldCooldown": 4000,
    "StallCooldown": 4000,
    "BreedingChance": 50,
    "BreedingCooldown": 6000,
    "GrowingAge": -24000,
    "Parent First": "",
    "Parent Second": ""
  },
  "binnie.rum.white": {
    "SpawnRate": 100,
    "IsEnabled": true,
    "WorldCooldown": 4000,
    "StallCooldown": 4000,
    "BreedingChance": 50,
    "BreedingCooldown": 6000,
    "GrowingAge": -24000,
    "Parent First": "",
    "Parent Second": ""
  },
  "cloud_seed": {
    "SpawnRate": 100,
    "IsEnabled": true,
    "WorldCooldown": 4000,
    "StallCooldown": 4000,
    "BreedingChance": 50,
    "BreedingCooldown": 6000,
    "GrowingAge": -24000,
    "Parent First": "",
    "Parent Second": ""
  },
  "binnie.wine.sparkling": {
    "SpawnRate": 100,
    "IsEnabled": true,
    "WorldCooldown": 4000,
    "StallCooldown": 4000,
    "BreedingChance": 50,
    "BreedingCooldown": 6000,
    "GrowingAge": -24000,
    "Parent First": "",
    "Parent Second": ""
  },
  "binnie.wine.cranberry": {
    "SpawnRate": 100,
    "IsEnabled": true,
    "WorldCooldown": 4000,
    "StallCooldown": 4000,
    "BreedingChance": 50,
    "BreedingCooldown": 6000,
    "GrowingAge": -24000,
    "Parent First": "",
    "Parent Second": ""
  },
  "binnie.liqueur.coffee": {
    "SpawnRate": 100,
    "IsEnabled": true,
    "WorldCooldown": 4000,
    "StallCooldown": 4000,
    "BreedingChance": 50,
    "BreedingCooldown": 6000,
    "GrowingAge": -24000,
    "Parent First": "",
    "Parent Second": ""
  },
  "binnie.liqueur.peach": {
    "SpawnRate": 100,
    "IsEnabled": true,
    "WorldCooldown": 4000,
    "StallCooldown": 4000,
    "BreedingChance": 50,
    "BreedingCooldown": 6000,
    "GrowingAge": -24000,
    "Parent First": "",
    "Parent Second": ""
  },
  "binnie.beer.corn": {
    "SpawnRate": 100,
    "IsEnabled": true,
    "WorldCooldown": 4000,
    "StallCooldown": 4000,
    "BreedingChance": 50,
    "BreedingCooldown": 6000,
    "GrowingAge": -24000,
    "Parent First": "",
    "Parent Second": ""
  },
  "binnie.fermented.potatoes": {
    "SpawnRate": 100,
    "IsEnabled": true,
    "WorldCooldown": 4000,
    "StallCooldown": 4000,
    "BreedingChance": 50,
    "BreedingCooldown": 6000,
    "GrowingAge": -24000,
    "Parent First": "",
    "Parent Second": ""
  },
  "binnie.liquor.cherry": {
    "SpawnRate": 100,
    "IsEnabled": true,
    "WorldCooldown": 4000,
    "StallCooldown": 4000,
    "BreedingChance": 50,
    "BreedingCooldown": 6000,
    "GrowingAge": -24000,
    "Parent First": "",
    "Parent Second": ""
  },
  "binnie.liqueur.mint": {
    "SpawnRate": 100,
    "IsEnabled": true,
    "WorldCooldown": 4000,
    "StallCooldown": 4000,
    "BreedingChance": 50,
    "BreedingCooldown": 6000,
    "GrowingAge": -24000,
    "Parent First": "",
    "Parent Second": ""
  },
  "vapor_of_levity": {
    "SpawnRate": 100,
    "IsEnabled": true,
    "WorldCooldown": 4000,
    "StallCooldown": 4000,
    "BreedingChance": 50,
    "BreedingCooldown": 6000,
    "GrowingAge": -24000,
    "Parent First": "",
    "Parent Second": ""
  },
  "water": {
    "SpawnRate": 100,
    "IsEnabled": true,
    "WorldCooldown": 4000,
    "StallCooldown": 4000,
    "BreedingChance": 50,
    "BreedingCooldown": 6000,
    "GrowingAge": -24000,
    "Parent First": "",
    "Parent Second": ""
  },
  "binnie.latex": {
    "SpawnRate": 100,
    "IsEnabled": true,
    "WorldCooldown": 4000,
    "StallCooldown": 4000,
    "BreedingChance": 50,
    "BreedingCooldown": 6000,
    "GrowingAge": -24000,
    "Parent First": "",
    "Parent Second": ""
  },
  "binnie.juice.olive": {
    "SpawnRate": 100,
    "IsEnabled": true,
    "WorldCooldown": 4000,
    "StallCooldown": 4000,
    "BreedingChance": 50,
    "BreedingCooldown": 6000,
    "GrowingAge": -24000,
    "Parent First": "",
    "Parent Second": ""
  },
  "binnie.brandy.grape": {
    "SpawnRate": 100,
    "IsEnabled": true,
    "WorldCooldown": 4000,
    "StallCooldown": 4000,
    "BreedingChance": 50,
    "BreedingCooldown": 6000,
    "GrowingAge": -24000,
    "Parent First": "",
    "Parent Second": ""
  },
  "binnie.juice.lime": {
    "SpawnRate": 100,
    "IsEnabled": true,
    "WorldCooldown": 4000,
    "StallCooldown": 4000,
    "BreedingChance": 50,
    "BreedingCooldown": 6000,
    "GrowingAge": -24000,
    "Parent First": "",
    "Parent Second": ""
  },
  "binnie.liquor.elderberry": {
    "SpawnRate": 100,
    "IsEnabled": true,
    "WorldCooldown": 4000,
    "StallCooldown": 4000,
    "BreedingChance": 50,
    "BreedingCooldown": 6000,
    "GrowingAge": -24000,
    "Parent First": "",
    "Parent Second": ""
  },
  "binnie.juice.tomato": {
    "SpawnRate": 100,
    "IsEnabled": true,
    "WorldCooldown": 4000,
    "StallCooldown": 4000,
    "BreedingChance": 50,
    "BreedingCooldown": 6000,
    "GrowingAge": -24000,
    "Parent First": "",
    "Parent Second": ""
  },
  "binnie.liqueur.blackberry": {
    "SpawnRate": 100,
    "IsEnabled": true,
    "WorldCooldown": 4000,
    "StallCooldown": 4000,
    "BreedingChance": 50,
    "BreedingCooldown": 6000,
    "GrowingAge": -24000,
    "Parent First": "",
    "Parent Second": ""
  },
  "binnie.liquor.apricot": {
    "SpawnRate": 100,
    "IsEnabled": true,
    "WorldCooldown": 4000,
    "StallCooldown": 4000,
    "BreedingChance": 50,
    "BreedingCooldown": 6000,
    "GrowingAge": -24000,
    "Parent First": "",
    "Parent Second": ""
  },
  "binnie.growth.medium": {
    "SpawnRate": 100,
    "IsEnabled": true,
    "WorldCooldown": 4000,
    "StallCooldown": 4000,
    "BreedingChance": 50,
    "BreedingCooldown": 6000,
    "GrowingAge": -24000,
    "Parent First": "",
    "Parent Second": ""
  },
  "binnie.resin": {
    "SpawnRate": 100,
    "IsEnabled": true,
    "WorldCooldown": 4000,
    "StallCooldown": 4000,
    "BreedingChance": 50,
    "BreedingCooldown": 6000,
    "GrowingAge": -24000,
    "Parent First": "",
    "Parent Second": ""
  },
  "biodiesel": {
    "SpawnRate": 100,
    "IsEnabled": true,
    "WorldCooldown": 4000,
    "StallCooldown": 4000,
    "BreedingChance": 50,
    "BreedingCooldown": 6000,
    "GrowingAge": -24000,
    "Parent First": "",
    "Parent Second": ""
  },
  "bio.ethanol": {
    "SpawnRate": 100,
    "IsEnabled": true,
    "WorldCooldown": 4000,
    "StallCooldown": 4000,
    "BreedingChance": 50,
    "BreedingCooldown": 6000,
    "GrowingAge": -24000,
    "Parent First": "",
    "Parent Second": ""
  },
  "cloud_seed_concentrated": {
    "SpawnRate": 100,
    "IsEnabled": true,
    "WorldCooldown": 4000,
    "StallCooldown": 4000,
    "BreedingChance": 50,
    "BreedingCooldown": 6000,
    "GrowingAge": -24000,
    "Parent First": "",
    "Parent Second": ""
  },
  "binnie.juice.red.grape": {
    "SpawnRate": 100,
    "IsEnabled": true,
    "WorldCooldown": 4000,
    "StallCooldown": 4000,
    "BreedingChance": 50,
    "BreedingCooldown": 6000,
    "GrowingAge": -24000,
    "Parent First": "",
    "Parent Second": ""
  },
  "lava": {
    "SpawnRate": 100,
    "IsEnabled": true,
    "WorldCooldown": 4000,
    "StallCooldown": 4000,
    "BreedingChance": 50,
    "BreedingCooldown": 6000,
    "GrowingAge": -24000,
    "Parent First": "",
    "Parent Second": ""
  },
  "binnie.brandy.fruit": {
    "SpawnRate": 100,
    "IsEnabled": true,
    "WorldCooldown": 4000,
    "StallCooldown": 4000,
    "BreedingChance": 50,
    "BreedingCooldown": 6000,
    "GrowingAge": -24000,
    "Parent First": "",
    "Parent Second": ""
  },
  "crystaloil": {
    "SpawnRate": 100,
    "IsEnabled": true,
    "WorldCooldown": 4000,
    "StallCooldown": 4000,
    "BreedingChance": 50,
    "BreedingCooldown": 6000,
    "GrowingAge": -24000,
    "Parent First": "",
    "Parent Second": ""
  },
  "binnie.turpentine": {
    "SpawnRate": 100,
    "IsEnabled": true,
    "WorldCooldown": 4000,
    "StallCooldown": 4000,
    "BreedingChance": 50,
    "BreedingCooldown": 6000,
    "GrowingAge": -24000,
    "Parent First": "",
    "Parent Second": ""
  },
  "binnie.beer.ale": {
    "SpawnRate": 100,
    "IsEnabled": true,
    "WorldCooldown": 4000,
    "StallCooldown": 4000,
    "BreedingChance": 50,
    "BreedingCooldown": 6000,
    "GrowingAge": -24000,
    "Parent First": "",
    "Parent Second": ""
  },
  "binnie.liqueur.lemon": {
    "SpawnRate": 100,
    "IsEnabled": true,
    "WorldCooldown": 4000,
    "StallCooldown": 4000,
    "BreedingChance": 50,
    "BreedingCooldown": 6000,
    "GrowingAge": -24000,
    "Parent First": "",
    "Parent Second": ""
  },
  "plantoil": {
    "SpawnRate": 100,
    "IsEnabled": true,
    "WorldCooldown": 4000,
    "StallCooldown": 4000,
    "BreedingChance": 50,
    "BreedingCooldown": 6000,
    "GrowingAge": -24000,
    "Parent First": "",
    "Parent Second": ""
  },
  "binnie.juice.white.grape": {
    "SpawnRate": 100,
    "IsEnabled": true,
    "WorldCooldown": 4000,
    "StallCooldown": 4000,
    "BreedingChance": 50,
    "BreedingCooldown": 6000,
    "GrowingAge": -24000,
    "Parent First": "",
    "Parent Second": ""
  },
  "binnie.liqueur.cinnamon": {
    "SpawnRate": 100,
    "IsEnabled": true,
    "WorldCooldown": 4000,
    "StallCooldown": 4000,
    "BreedingChance": 50,
    "BreedingCooldown": 6000,
    "GrowingAge": -24000,
    "Parent First": "",
    "Parent Second": ""
  },
  "binnie.beer.wheat": {
    "SpawnRate": 100,
    "IsEnabled": true,
    "WorldCooldown": 4000,
    "StallCooldown": 4000,
    "BreedingChance": 50,
    "BreedingCooldown": 6000,
    "GrowingAge": -24000,
    "Parent First": "",
    "Parent Second": ""
  },
  "binnie.juice.grapefruit": {
    "SpawnRate": 100,
    "IsEnabled": true,
    "WorldCooldown": 4000,
    "StallCooldown": 4000,
    "BreedingChance": 50,
    "BreedingCooldown": 6000,
    "GrowingAge": -24000,
    "Parent First": "",
    "Parent Second": ""
  },
  "ice": {
    "SpawnRate": 100,
    "IsEnabled": true,
    "WorldCooldown": 4000,
    "StallCooldown": 4000,
    "BreedingChance": 50,
    "BreedingCooldown": 6000,
    "GrowingAge": -24000,
    "Parent First": "",
    "Parent Second": ""
  },
  "binnie.juice.lemon": {
    "SpawnRate": 100,
    "IsEnabled": true,
    "WorldCooldown": 4000,
    "StallCooldown": 4000,
    "BreedingChance": 50,
    "BreedingCooldown": 6000,
    "GrowingAge": -24000,
    "Parent First": "",
    "Parent Second": ""
  },
  "binnie.whiskey.wheat": {
    "SpawnRate": 100,
    "IsEnabled": true,
    "WorldCooldown": 4000,
    "StallCooldown": 4000,
    "BreedingChance": 50,
    "BreedingCooldown": 6000,
    "GrowingAge": -24000,
    "Parent First": "",
    "Parent Second": ""
  },
  "biomass": {
    "SpawnRate": 100,
    "IsEnabled": true,
    "WorldCooldown": 4000,
    "StallCooldown": 4000,
    "BreedingChance": 50,
    "BreedingCooldown": 6000,
    "GrowingAge": -24000,
    "Parent First": "",
    "Parent Second": ""
  },
  "binnie.liqueur.cherry": {
    "SpawnRate": 100,
    "IsEnabled": true,
    "WorldCooldown": 4000,
    "StallCooldown": 4000,
    "BreedingChance": 50,
    "BreedingCooldown": 6000,
    "GrowingAge": -24000,
    "Parent First": "",
    "Parent Second": ""
  },
  "binnie.wine.banana": {
    "SpawnRate": 100,
    "IsEnabled": true,
    "WorldCooldown": 4000,
    "StallCooldown": 4000,
    "BreedingChance": 50,
    "BreedingCooldown": 6000,
    "GrowingAge": -24000,
    "Parent First": "",
    "Parent Second": ""
  },
  "binnie.bacteria.poly": {
    "SpawnRate": 100,
    "IsEnabled": true,
    "WorldCooldown": 4000,
    "StallCooldown": 4000,
    "BreedingChance": 50,
    "BreedingCooldown": 6000,
    "GrowingAge": -24000,
    "Parent First": "",
    "Parent Second": ""
  },
  "binnie.whiskey": {
    "SpawnRate": 100,
    "IsEnabled": true,
    "WorldCooldown": 4000,
    "StallCooldown": 4000,
    "BreedingChance": 50,
    "BreedingCooldown": 6000,
    "GrowingAge": -24000,
    "Parent First": "",
    "Parent Second": ""
  },
  "binnie.wine.agave": {
    "SpawnRate": 100,
    "IsEnabled": true,
    "WorldCooldown": 4000,
    "StallCooldown": 4000,
    "BreedingChance": 50,
    "BreedingCooldown": 6000,
    "GrowingAge": -24000,
    "Parent First": "",
    "Parent Second": ""
  },
  "binnie.wine.citrus": {
    "SpawnRate": 100,
    "IsEnabled": true,
    "WorldCooldown": 4000,
    "StallCooldown": 4000,
    "BreedingChance": 50,
    "BreedingCooldown": 6000,
    "GrowingAge": -24000,
    "Parent First": "",
    "Parent Second": ""
  },
  "binnie.brandy.cherry": {
    "SpawnRate": 100,
    "IsEnabled": true,
    "WorldCooldown": 4000,
    "StallCooldown": 4000,
    "BreedingChance": 50,
    "BreedingCooldown": 6000,
    "GrowingAge": -24000,
    "Parent First": "",
    "Parent Second": ""
  },
  "binnie.liquor.pear": {
    "SpawnRate": 100,
    "IsEnabled": true,
    "WorldCooldown": 4000,
    "StallCooldown": 4000,
    "BreedingChance": 50,
    "BreedingCooldown": 6000,
    "GrowingAge": -24000,
    "Parent First": "",
    "Parent Second": ""
  },
  "rocket_fuel": {
    "SpawnRate": 100,
    "IsEnabled": true,
    "WorldCooldown": 4000,
    "StallCooldown": 4000,
    "BreedingChance": 50,
    "BreedingCooldown": 6000,
    "GrowingAge": -24000,
    "Parent First": "",
    "Parent Second": ""
  },
  "short.mead": {
    "SpawnRate": 100,
    "IsEnabled": true,
    "WorldCooldown": 4000,
    "StallCooldown": 4000,
    "BreedingChance": 50,
    "BreedingCooldown": 6000,
    "GrowingAge": -24000,
    "Parent First": "",
    "Parent Second": ""
  },
  "binnie.tequila": {
    "SpawnRate": 100,
    "IsEnabled": true,
    "WorldCooldown": 4000,
    "StallCooldown": 4000,
    "BreedingChance": 50,
    "BreedingCooldown": 6000,
    "GrowingAge": -24000,
    "Parent First": "",
    "Parent Second": ""
  },
  "liquid_sunshine": {
    "SpawnRate": 100,
    "IsEnabled": true,
    "WorldCooldown": 4000,
    "StallCooldown": 4000,
    "BreedingChance": 50,
    "BreedingCooldown": 6000,
    "GrowingAge": -24000,
    "Parent First": "",
    "Parent Second": ""
  },
  "binnie.beer.rye": {
    "SpawnRate": 100,
    "IsEnabled": true,
    "WorldCooldown": 4000,
    "StallCooldown": 4000,
    "BreedingChance": 50,
    "BreedingCooldown": 6000,
    "GrowingAge": -24000,
    "Parent First": "",
    "Parent Second": ""
  },
  "nutrient_distillation": {
    "SpawnRate": 100,
    "IsEnabled": true,
    "WorldCooldown": 4000,
    "StallCooldown": 4000,
    "BreedingChance": 50,
    "BreedingCooldown": 6000,
    "GrowingAge": -24000,
    "Parent First": "",
    "Parent Second": ""
  },
  "binnie.wine.apricot": {
    "SpawnRate": 100,
    "IsEnabled": true,
    "WorldCooldown": 4000,
    "StallCooldown": 4000,
    "BreedingChance": 50,
    "BreedingCooldown": 6000,
    "GrowingAge": -24000,
    "Parent First": "",
    "Parent Second": ""
  },
  "binnie.wine.carrot": {
    "SpawnRate": 100,
    "IsEnabled": true,
    "WorldCooldown": 4000,
    "StallCooldown": 4000,
    "BreedingChance": 50,
    "BreedingCooldown": 6000,
    "GrowingAge": -24000,
    "Parent First": "",
    "Parent Second": ""
  },
  "binnie.juice.elderberry": {
    "SpawnRate": 100,
    "IsEnabled": true,
    "WorldCooldown": 4000,
    "StallCooldown": 4000,
    "BreedingChance": 50,
    "BreedingCooldown": 6000,
    "GrowingAge": -24000,
    "Parent First": "",
    "Parent Second": ""
  },
  "xpjuice": {
    "SpawnRate": 100,
    "IsEnabled": true,
    "WorldCooldown": 4000,
    "StallCooldown": 4000,
    "BreedingChance": 50,
    "BreedingCooldown": 6000,
    "GrowingAge": -24000,
    "Parent First": "",
    "Parent Second": ""
  },
  "binnie.juice.cherry": {
    "SpawnRate": 100,
    "IsEnabled": true,
    "WorldCooldown": 4000,
    "StallCooldown": 4000,
    "BreedingChance": 50,
    "BreedingCooldown": 6000,
    "GrowingAge": -24000,
    "Parent First": "",
    "Parent Second": ""
  },
  "binnie.juice.pineapple": {
    "SpawnRate": 100,
    "IsEnabled": true,
    "WorldCooldown": 4000,
    "StallCooldown": 4000,
    "BreedingChance": 50,
    "BreedingCooldown": 6000,
    "GrowingAge": -24000,
    "Parent First": "",
    "Parent Second": ""
  },
  "binnie.juice.orange": {
    "SpawnRate": 100,
    "IsEnabled": true,
    "WorldCooldown": 4000,
    "StallCooldown": 4000,
    "BreedingChance": 50,
    "BreedingCooldown": 6000,
    "GrowingAge": -24000,
    "Parent First": "",
    "Parent Second": ""
  },
  "binnie.sap": {
    "SpawnRate": 100,
    "IsEnabled": true,
    "WorldCooldown": 4000,
    "StallCooldown": 4000,
    "BreedingChance": 50,
    "BreedingCooldown": 6000,
    "GrowingAge": -24000,
    "Parent First": "",
    "Parent Second": ""
  },
  "binnie.spirit.sugarcane": {
    "SpawnRate": 100,
    "IsEnabled": true,
    "WorldCooldown": 4000,
    "StallCooldown": 4000,
    "BreedingChance": 50,
    "BreedingCooldown": 6000,
    "GrowingAge": -24000,
    "Parent First": "",
    "Parent Second": ""
  },
  "binnie.liqueur.hazelnut": {
    "SpawnRate": 100,
    "IsEnabled": true,
    "WorldCooldown": 4000,
    "StallCooldown": 4000,
    "BreedingChance": 50,
    "BreedingCooldown": 6000,
    "GrowingAge": -24000,
    "Parent First": "",
    "Parent Second": ""
  },
  "creosote": {
    "SpawnRate": 100,
    "IsEnabled": true,
    "WorldCooldown": 4000,
    "StallCooldown": 4000,
    "BreedingChance": 50,
    "BreedingCooldown": 6000,
    "GrowingAge": -24000,
    "Parent First": "",
    "Parent Second": ""
  },
  "binnie.beer.stout": {
    "SpawnRate": 100,
    "IsEnabled": true,
    "WorldCooldown": 4000,
    "StallCooldown": 4000,
    "BreedingChance": 50,
    "BreedingCooldown": 6000,
    "GrowingAge": -24000,
    "Parent First": "",
    "Parent Second": ""
  },
  "binnie.brandy.plum": {
    "SpawnRate": 100,
    "IsEnabled": true,
    "WorldCooldown": 4000,
    "StallCooldown": 4000,
    "BreedingChance": 50,
    "BreedingCooldown": 6000,
    "GrowingAge": -24000,
    "Parent First": "",
    "Parent Second": ""
  },
  "binnie.liquor.apple": {
    "SpawnRate": 100,
    "IsEnabled": true,
    "WorldCooldown": 4000,
    "StallCooldown": 4000,
    "BreedingChance": 50,
    "BreedingCooldown": 6000,
    "GrowingAge": -24000,
    "Parent First": "",
    "Parent Second": ""
  },
  "mutagen": {
    "SpawnRate": 100,
    "IsEnabled": true,
    "WorldCooldown": 4000,
    "StallCooldown": 4000,
    "BreedingChance": 50,
    "BreedingCooldown": 6000,
    "GrowingAge": -24000,
    "Parent First": "",
    "Parent Second": ""
  },
  "stone": {
    "SpawnRate": 100,
    "IsEnabled": true,
    "WorldCooldown": 4000,
    "StallCooldown": 4000,
    "BreedingChance": 50,
    "BreedingCooldown": 6000,
    "GrowingAge": -24000,
    "Parent First": "",
    "Parent Second": ""
  },
  "xu_enchanted_metal": {
    "SpawnRate": 100,
    "IsEnabled": true,
    "WorldCooldown": 4000,
    "StallCooldown": 4000,
    "BreedingChance": 50,
    "BreedingCooldown": 6000,
    "GrowingAge": -24000,
    "Parent First": "",
    "Parent Second": ""
  },
  "end_steel": {
    "SpawnRate": 100,
    "IsEnabled": true,
    "WorldCooldown": 4000,
    "StallCooldown": 4000,
    "BreedingChance": 50,
    "BreedingCooldown": 6000,
    "GrowingAge": -24000,
    "Parent First": "",
    "Parent Second": ""
  },
  "brass": {
    "SpawnRate": 100,
    "IsEnabled": true,
    "WorldCooldown": 4000,
    "StallCooldown": 4000,
    "BreedingChance": 50,
    "BreedingCooldown": 6000,
    "GrowingAge": -24000,
    "Parent First": "",
    "Parent Second": ""
  },
  "xu_evil_metal": {
    "SpawnRate": 100,
    "IsEnabled": true,
    "WorldCooldown": 4000,
    "StallCooldown": 4000,
    "BreedingChance": 50,
    "BreedingCooldown": 6000,
    "GrowingAge": -24000,
    "Parent First": "",
    "Parent Second": ""
  },
  "conductive_iron": {
    "SpawnRate": 100,
    "IsEnabled": true,
    "WorldCooldown": 4000,
    "StallCooldown": 4000,
    "BreedingChance": 50,
    "BreedingCooldown": 6000,
    "GrowingAge": -24000,
    "Parent First": "",
    "Parent Second": ""
  },
  "blood": {
    "SpawnRate": 100,
    "IsEnabled": true,
    "WorldCooldown": 4000,
    "StallCooldown": 4000,
    "BreedingChance": 50,
    "BreedingCooldown": 6000,
    "GrowingAge": -24000,
    "Parent First": "",
    "Parent Second": ""
  },
  "iron": {
    "SpawnRate": 100,
    "IsEnabled": true,
    "WorldCooldown": 4000,
    "StallCooldown": 4000,
    "BreedingChance": 50,
    "BreedingCooldown": 6000,
    "GrowingAge": -24000,
    "Parent First": "",
    "Parent Second": ""
  },
  "electrical_steel": {
    "SpawnRate": 100,
    "IsEnabled": true,
    "WorldCooldown": 4000,
    "StallCooldown": 4000,
    "BreedingChance": 50,
    "BreedingCooldown": 6000,
    "GrowingAge": -24000,
    "Parent First": "",
    "Parent Second": ""
  },
  "emerald": {
    "SpawnRate": 100,
    "IsEnabled": true,
    "WorldCooldown": 4000,
    "StallCooldown": 4000,
    "BreedingChance": 50,
    "BreedingCooldown": 6000,
    "GrowingAge": -24000,
    "Parent First": "",
    "Parent Second": ""
  },
  "construction_alloy": {
    "SpawnRate": 100,
    "IsEnabled": true,
    "WorldCooldown": 4000,
    "StallCooldown": 4000,
    "BreedingChance": 50,
    "BreedingCooldown": 6000,
    "GrowingAge": -24000,
    "Parent First": "",
    "Parent Second": ""
  },
  "steel": {
    "SpawnRate": 100,
    "IsEnabled": true,
    "WorldCooldown": 4000,
    "StallCooldown": 4000,
    "BreedingChance": 50,
    "BreedingCooldown": 6000,
    "GrowingAge": -24000,
    "Parent First": "",
    "Parent Second": ""
  },
  "zinc": {
    "SpawnRate": 100,
    "IsEnabled": true,
    "WorldCooldown": 4000,
    "StallCooldown": 4000,
    "BreedingChance": 50,
    "BreedingCooldown": 6000,
    "GrowingAge": -24000,
    "Parent First": "",
    "Parent Second": ""
  },
  "silver": {
    "SpawnRate": 100,
    "IsEnabled": true,
    "WorldCooldown": 4000,
    "StallCooldown": 4000,
    "BreedingChance": 50,
    "BreedingCooldown": 6000,
    "GrowingAge": -24000,
    "Parent First": "",
    "Parent Second": ""
  },
  "aluminum": {
    "SpawnRate": 100,
    "IsEnabled": true,
    "WorldCooldown": 4000,
    "StallCooldown": 4000,
    "BreedingChance": 50,
    "BreedingCooldown": 6000,
    "GrowingAge": -24000,
    "Parent First": "",
    "Parent Second": ""
  },
  "milk": {
    "SpawnRate": 100,
    "IsEnabled": true,
    "WorldCooldown": 4000,
    "StallCooldown": 4000,
    "BreedingChance": 50,
    "BreedingCooldown": 6000,
    "GrowingAge": -24000,
    "Parent First": "",
    "Parent Second": ""
  },
  "lead": {
    "SpawnRate": 100,
    "IsEnabled": true,
    "WorldCooldown": 4000,
    "StallCooldown": 4000,
    "BreedingChance": 50,
    "BreedingCooldown": 6000,
    "GrowingAge": -24000,
    "Parent First": "",
    "Parent Second": ""
  },
  "alchemical_redstone": {
    "SpawnRate": 100,
    "IsEnabled": true,
    "WorldCooldown": 4000,
    "StallCooldown": 4000,
    "BreedingChance": 50,
    "BreedingCooldown": 6000,
    "GrowingAge": -24000,
    "Parent First": "",
    "Parent Second": ""
  },
  "base_essence": {
    "SpawnRate": 100,
    "IsEnabled": true,
    "WorldCooldown": 4000,
    "StallCooldown": 4000,
    "BreedingChance": 50,
    "BreedingCooldown": 6000,
    "GrowingAge": -24000,
    "Parent First": "",
    "Parent Second": ""
  },
  "alubrass": {
    "SpawnRate": 100,
    "IsEnabled": true,
    "WorldCooldown": 4000,
    "StallCooldown": 4000,
    "BreedingChance": 50,
    "BreedingCooldown": 6000,
    "GrowingAge": -24000,
    "Parent First": "",
    "Parent Second": ""
  },
  "gold": {
    "SpawnRate": 100,
    "IsEnabled": true,
    "WorldCooldown": 4000,
    "StallCooldown": 4000,
    "BreedingChance": 50,
    "BreedingCooldown": 6000,
    "GrowingAge": -24000,
    "Parent First": "",
    "Parent Second": ""
  },
  "dawnstone": {
    "SpawnRate": 100,
    "IsEnabled": true,
    "WorldCooldown": 4000,
    "StallCooldown": 4000,
    "BreedingChance": 50,
    "BreedingCooldown": 6000,
    "GrowingAge": -24000,
    "Parent First": "",
    "Parent Second": ""
  },
  "prudentium": {
    "SpawnRate": 100,
    "IsEnabled": true,
    "WorldCooldown": 4000,
    "StallCooldown": 4000,
    "BreedingChance": 50,
    "BreedingCooldown": 6000,
    "GrowingAge": -24000,
    "Parent First": "",
    "Parent Second": ""
  },
  "bronze": {
    "SpawnRate": 100,
    "IsEnabled": true,
    "WorldCooldown": 4000,
    "StallCooldown": 4000,
    "BreedingChance": 50,
    "BreedingCooldown": 6000,
    "GrowingAge": -24000,
    "Parent First": "",
    "Parent Second": ""
  },
  "tin": {
    "SpawnRate": 100,
    "IsEnabled": true,
    "WorldCooldown": 4000,
    "StallCooldown": 4000,
    "BreedingChance": 50,
    "BreedingCooldown": 6000,
    "GrowingAge": -24000,
    "Parent First": "",
    "Parent Second": ""
  },
  "dark_steel": {
    "SpawnRate": 100,
    "IsEnabled": true,
    "WorldCooldown": 4000,
    "StallCooldown": 4000,
    "BreedingChance": 50,
    "BreedingCooldown": 6000,
    "GrowingAge": -24000,
    "Parent First": "",
    "Parent Second": ""
  },
  "knightslime": {
    "SpawnRate": 100,
    "IsEnabled": true,
    "WorldCooldown": 4000,
    "StallCooldown": 4000,
    "BreedingChance": 50,
    "BreedingCooldown": 6000,
    "GrowingAge": -24000,
    "Parent First": "",
    "Parent Second": ""
  },
  "purpleslime": {
    "SpawnRate": 100,
    "IsEnabled": true,
    "WorldCooldown": 4000,
    "StallCooldown": 4000,
    "BreedingChance": 50,
    "BreedingCooldown": 6000,
    "GrowingAge": -24000,
    "Parent First": "",
    "Parent Second": ""
  },
  "sand": {
    "SpawnRate": 100,
    "IsEnabled": true,
    "WorldCooldown": 4000,
    "StallCooldown": 4000,
    "BreedingChance": 50,
    "BreedingCooldown": 6000,
    "GrowingAge": -24000,
    "Parent First": "",
    "Parent Second": ""
  },
  "copper": {
    "SpawnRate": 100,
    "IsEnabled": true,
    "WorldCooldown": 4000,
    "StallCooldown": 4000,
    "BreedingChance": 50,
    "BreedingCooldown": 6000,
    "GrowingAge": -24000,
    "Parent First": "",
    "Parent Second": ""
  },
  "energetic_alloy": {
    "SpawnRate": 100,
    "IsEnabled": true,
    "WorldCooldown": 4000,
    "StallCooldown": 4000,
    "BreedingChance": 50,
    "BreedingCooldown": 6000,
    "GrowingAge": -24000,
    "Parent First": "",
    "Parent Second": ""
  },
  "intermedium": {
    "SpawnRate": 100,
    "IsEnabled": true,
    "WorldCooldown": 4000,
    "StallCooldown": 4000,
    "BreedingChance": 50,
    "BreedingCooldown": 6000,
    "GrowingAge": -24000,
    "Parent First": "",
    "Parent Second": ""
  },
  "electrum": {
    "SpawnRate": 100,
    "IsEnabled": true,
    "WorldCooldown": 4000,
    "StallCooldown": 4000,
    "BreedingChance": 50,
    "BreedingCooldown": 6000,
    "GrowingAge": -24000,
    "Parent First": "",
    "Parent Second": ""
  },
  "cobalt": {
    "SpawnRate": 100,
    "IsEnabled": true,
    "WorldCooldown": 4000,
    "StallCooldown": 4000,
    "BreedingChance": 50,
    "BreedingCooldown": 6000,
    "GrowingAge": -24000,
    "Parent First": "",
    "Parent Second": ""
  },
  "redstone_alloy": {
    "SpawnRate": 100,
    "IsEnabled": true,
    "WorldCooldown": 4000,
    "StallCooldown": 4000,
    "BreedingChance": 50,
    "BreedingCooldown": 6000,
    "GrowingAge": -24000,
    "Parent First": "",
    "Parent Second": ""
  },
  "manyullyn": {
    "SpawnRate": 100,
    "IsEnabled": true,
    "WorldCooldown": 4000,
    "StallCooldown": 4000,
    "BreedingChance": 50,
    "BreedingCooldown": 6000,
    "GrowingAge": -24000,
    "Parent First": "",
    "Parent Second": ""
  },
  "glowstone": {
    "SpawnRate": 100,
    "IsEnabled": true,
    "WorldCooldown": 4000,
    "StallCooldown": 4000,
    "BreedingChance": 50,
    "BreedingCooldown": 6000,
    "GrowingAge": -24000,
    "Parent First": "",
    "Parent Second": ""
  },
  "superium": {
    "SpawnRate": 100,
    "IsEnabled": true,
    "WorldCooldown": 4000,
    "StallCooldown": 4000,
    "BreedingChance": 50,
    "BreedingCooldown": 6000,
    "GrowingAge": -24000,
    "Parent First": "",
    "Parent Second": ""
  },
  "ardite": {
    "SpawnRate": 100,
    "IsEnabled": true,
    "WorldCooldown": 4000,
    "StallCooldown": 4000,
    "BreedingChance": 50,
    "BreedingCooldown": 6000,
    "GrowingAge": -24000,
    "Parent First": "",
    "Parent Second": ""
  },
  "clay": {
    "SpawnRate": 100,
    "IsEnabled": true,
    "WorldCooldown": 4000,
    "StallCooldown": 4000,
    "BreedingChance": 50,
    "BreedingCooldown": 6000,
    "GrowingAge": -24000,
    "Parent First": "",
    "Parent Second": ""
  },
  "honey": {
    "SpawnRate": 100,
    "IsEnabled": true,
    "WorldCooldown": 4000,
    "StallCooldown": 4000,
    "BreedingChance": 50,
    "BreedingCooldown": 6000,
    "GrowingAge": -24000,
    "Parent First": "",
    "Parent Second": ""
  },
  "astralsorcery.liquidstarlight": {
    "SpawnRate": 100,
    "IsEnabled": true,
    "WorldCooldown": 4000,
    "StallCooldown": 4000,
    "BreedingChance": 50,
    "BreedingCooldown": 6000,
    "GrowingAge": -24000,
    "Parent First": "",
    "Parent Second": ""
  },
  "hot_spring_water": {
    "SpawnRate": 100,
    "IsEnabled": true,
    "WorldCooldown": 4000,
    "StallCooldown": 4000,
    "BreedingChance": 50,
    "BreedingCooldown": 6000,
    "GrowingAge": -24000,
    "Parent First": "",
    "Parent Second": ""
  },
  "redstone": {
    "SpawnRate": 100,
    "IsEnabled": true,
    "WorldCooldown": 4000,
    "StallCooldown": 4000,
    "BreedingChance": 50,
    "BreedingCooldown": 6000,
    "GrowingAge": -24000,
    "Parent First": "",
    "Parent Second": ""
  },
  "vibrant_alloy": {
    "SpawnRate": 100,
    "IsEnabled": true,
    "WorldCooldown": 4000,
    "StallCooldown": 4000,
    "BreedingChance": 50,
    "BreedingCooldown": 6000,
    "GrowingAge": -24000,
    "Parent First": "",
    "Parent Second": ""
  },
  "poison": {
    "SpawnRate": 100,
    "IsEnabled": true,
    "WorldCooldown": 4000,
    "StallCooldown": 4000,
    "BreedingChance": 50,
    "BreedingCooldown": 6000,
    "GrowingAge": -24000,
    "Parent First": "",
    "Parent Second": ""
  },
  "pigiron": {
    "SpawnRate": 100,
    "IsEnabled": true,
    "WorldCooldown": 4000,
    "StallCooldown": 4000,
    "BreedingChance": 50,
    "BreedingCooldown": 6000,
    "GrowingAge": -24000,
    "Parent First": "",
    "Parent Second": ""
  },
  "dirt": {
    "SpawnRate": 100,
    "IsEnabled": true,
    "WorldCooldown": 4000,
    "StallCooldown": 4000,
    "BreedingChance": 50,
    "BreedingCooldown": 6000,
    "GrowingAge": -24000,
    "Parent First": "",
    "Parent Second": ""
  },
  "soulium": {
    "SpawnRate": 100,
    "IsEnabled": true,
    "WorldCooldown": 4000,
    "StallCooldown": 4000,
    "BreedingChance": 50,
    "BreedingCooldown": 6000,
    "GrowingAge": -24000,
    "Parent First": "",
    "Parent Second": ""
  },
  "pulsating_iron": {
    "SpawnRate": 100,
    "IsEnabled": true,
    "WorldCooldown": 4000,
    "StallCooldown": 4000,
    "BreedingChance": 50,
    "BreedingCooldown": 6000,
    "GrowingAge": -24000,
    "Parent First": "",
    "Parent Second": ""
  },
  "obsidian": {
    "SpawnRate": 100,
    "IsEnabled": true,
    "WorldCooldown": 4000,
    "StallCooldown": 4000,
    "BreedingChance": 50,
    "BreedingCooldown": 6000,
    "GrowingAge": -24000,
    "Parent First": "",
    "Parent Second": ""
  },
  "nickel": {
    "SpawnRate": 100,
    "IsEnabled": true,
    "WorldCooldown": 4000,
    "StallCooldown": 4000,
    "BreedingChance": 50,
    "BreedingCooldown": 6000,
    "GrowingAge": -24000,
    "Parent First": "",
    "Parent Second": ""
  },
  "ender": {
    "SpawnRate": 100,
    "IsEnabled": true,
    "WorldCooldown": 4000,
    "StallCooldown": 4000,
    "BreedingChance": 50,
    "BreedingCooldown": 6000,
    "GrowingAge": -24000,
    "Parent First": "",
    "Parent Second": ""
  },
  "uranium": {
    "SpawnRate": 100,
    "IsEnabled": true,
    "WorldCooldown": 4000,
    "StallCooldown": 4000,
    "BreedingChance": 50,
    "BreedingCooldown": 6000,
    "GrowingAge": -24000,
    "Parent First": "",
    "Parent Second": ""
  },
  "inferium": {
    "SpawnRate": 100,
    "IsEnabled": true,
    "WorldCooldown": 4000,
    "StallCooldown": 4000,
    "BreedingChance": 50,
    "BreedingCooldown": 6000,
    "GrowingAge": -24000,
    "Parent First": "",
    "Parent Second": ""
  },
  "blueslime": {
    "SpawnRate": 100,
    "IsEnabled": true,
    "WorldCooldown": 4000,
    "StallCooldown": 4000,
    "BreedingChance": 50,
    "BreedingCooldown": 6000,
    "GrowingAge": -24000,
    "Parent First": "",
    "Parent Second": ""
  },
  "xu_demonic_metal": {
    "SpawnRate": 100,
    "IsEnabled": true,
    "WorldCooldown": 4000,
    "StallCooldown": 4000,
    "BreedingChance": 50,
    "BreedingCooldown": 6000,
    "GrowingAge": -24000,
    "Parent First": "",
    "Parent Second": ""
  },
  "constantan": {
    "SpawnRate": 100,
    "IsEnabled": true,
    "WorldCooldown": 4000,
    "StallCooldown": 4000,
    "BreedingChance": 50,
    "BreedingCooldown": 6000,
    "GrowingAge": -24000,
    "Parent First": "",
    "Parent Second": ""
  },
  "supremium": {
    "SpawnRate": 100,
    "IsEnabled": true,
    "WorldCooldown": 4000,
    "StallCooldown": 4000,
    "BreedingChance": 50,
    "BreedingCooldown": 6000,
    "GrowingAge": -24000,
    "Parent First": "",
    "Parent Second": ""
  },
  "soularium": {
    "SpawnRate": 100,
    "IsEnabled": true,
    "WorldCooldown": 4000,
    "StallCooldown": 4000,
    "BreedingChance": 50,
    "BreedingCooldown": 6000,
    "GrowingAge": -24000,
    "Parent First": "",
    "Parent Second": ""
  }
}